<?xml version="1.0" encoding="utf-8"?>
<!-- Generator: Adobe Illustrator 19.0.0, SVG Export Plug-In . SVG Version: 6.00 Build 0)  -->
<svg xmlns="http://www.w3.org/2000/svg" xmlns:xlink="http://www.w3.org/1999/xlink" version="1.1" id="Capa_1" x="0px" y="0px" viewBox="-260 352 90 90" style="enable-background:new -260 352 90 90;" xml:space="preserve">
<style type="text/css">
	.st0{opacity:0.52;}
	.st1{fill:#2BBC9F;}
</style>
<g class="st0">
	<g>
		<g>
			<path class="st1" d="M-207.1,360.8V376c-33.4,0-61,11-46.6,59.9c-2.3-30.5,12.6-40.1,46.6-40.1v14.9c0,1.1,0.6,2,1.6,2.5     c0.3,0.1,0.7,0.2,1,0.2c0.7,0,1.4-0.3,1.9-0.8l31.8-24.9c1-1,1-2.7,0-3.8l-31.8-25c-0.8-0.8-1.9-1-2.9-0.6     C-206.5,358.8-207.1,359.8-207.1,360.8z"/>
		</g>
	</g>
</g>
</svg>
